{
  "name": "Menu",
  "fields": [
    {
      "fieldName": "date",
      "fieldType": "LocalDate",
      "fieldValidateRules": ["required"]
    },
    {
      "fieldName": "userId",
      "fieldType": "String",
      "fieldValidateRules": ["required"]
    }
  ],
  "relationships": [
    {
      "relationshipType": "many-to-one",
      "otherEntityName": "recipe",
      "otherEntityRelationshipName": "menu",
      "relationshipName": "starter",
      "otherEntityField": "name"
    },
    {
      "relationshipType": "many-to-one",
      "otherEntityName": "recipe",
      "otherEntityRelationshipName": "menu",
      "relationshipName": "main",
      "otherEntityField": "name"
    },
    {
      "relationshipType": "many-to-one",
      "otherEntityName": "recipe",
      "otherEntityRelationshipName": "menu",
      "relationshipName": "dessert",
      "otherEntityField": "name"
    }
  ],
  "entityTableName": "menu",
  "dto": "mapstruct",
  "pagination": "infinite-scroll",
  "service": "serviceClass",
  "jpaMetamodelFiltering": false,
  "fluentMethods": true,
  "readOnly": false,
  "embedded": false,
  "applications": ["mymenums", "mymenuweb"],
  "microserviceName": "mymenums",
  "clientRootFolder": "mymenums",
  "databaseType": "sql",
  "changelogDate": "20210401162439"
}
